[
  {
    "id": 1,
    "name": "profesor",
    "shortcut": "prof."
  },
  {
    "id": 2,
    "name": "doktor habilitowany inżynier",
    "shortcut": "dr hab. inż."
  },
  {
    "id": 3,
    "name": "doktor habilitowany",
    "shortcut": "dr hab."
  },
  {
    "id": 4,
    "name": "doktor inżynier",
    "shortcut": "dr inż."
  },
  {
    "id": 5,
    "name": "doktor",
    "shortcut": "dr"
  },
  {
    "id": 6,
    "name": "magister",
    "shortcut": "mgr"
  },
  {
    "id": 7,
    "name": "magister inżynier",
    "shortcut": "mgr inż."
  },
  {
    "id": 8,
    "name": "inżynier",
    "shortcut": "inż."
  }
]
